impedence_tests/TEK0011.CSV

Record Length,2.500000e+03,,   0.000000000000,  -0.89600,
Sample Interval,1.000000e-02,,   0.010000000000,  -0.89600,
Trigger Point,-0.000000000000e+00,,   0.020000000000,  -0.89600,
,,,   0.030000000000,  -0.89600,
,,,   0.040000000000,  -0.89600,
,,,   0.050000000000,  -0.89600,
Source,CH2,,   0.060000000000,  -0.89600,
Vertical Units,V,,   0.070000000000,  -0.89600,
Vertical Scale,2.000000e-01,,   0.080000000000,  -0.89600,
Vertical Offset,-1.280000e-01,,   0.090000000000,  -0.89600,
Horizontal Units,s,,   0.100000000000,  -0.89600,
Horizontal Scale,2.500000e+00,,   0.110000000000,  -0.89600,
Pt Fmt,Y,,   0.120000000000,  -0.22400,
Yzero,0.000000e+00,,   0.130000000000,  -0.24000,
Probe Atten,1.000000e+00,,   0.140000000000,  -0.21600,
Model Number,TBS1102B,,   0.150000000000,  -0.22400,
Serial Number,C012719,,   0.160000000000,  -0.21600,
Firmware Version,FV:v4.0,,   0.170000000000,  -0.20000,
,,,0.180000000000,  -0.21600,
,,,0.190000000000,  -0.20800,
,,,0.200000000000,  -0.21600,
,,,0.210000000000,  -0.20800,
,,,0.220000000000,  -0.21600,
,,,0.230000000000,  -0.24000,
,,,0.240000000000,  -0.22400,
,,,0.250000000000,  -0.23200,
,,,0.260000000000,  -0.22400,
,,,0.270000000000,  -0.22400,
,,,0.280000000000,  -0.24000,
,,,0.290000000000,  -0.21600,
,,,0.300000000000,  -0.23200,
,,,0.310000000000,  -0.22400,
,,,0.320000000000,  -0.22400,
,,,0.330000000000,  -0.22400,
,,,0.340000000000,  -0.20800,
,,,0.350000000000,  -0.23200,
,,,0.360000000000,  -0.21600,
,,,0.370000000000,  -0.20800,
,,,0.380000000000,  -0.22400,
,,,0.390000000000,  -0.20800,
,,,0.400000000000,  -0.22400,
,,,0.410000000000,  -0.21600,
,,,0.420000000000,  -0.22400,
,,,0.430000000000,  -0.24000,
,,,0.440000000000,  -0.22400,
,,,0.450000000000,  -0.24000,
,,,0.460000000000,  -0.23200,
,,,0.470000000000,  -0.22400,
,,,0.480000000000,  -0.23200,
,,,0.490000000000,  -0.20800,
,,,0.500000000000,  -0.21600,
,,,0.510000000000,  -0.21600,
,,,0.520000000000,  -0.20800,
,,,0.530000000000,  -0.21600,
,,,0.540000000000,  -0.20000,
,,,0.550000000000,  -0.20800,
,,,0.560000000000,  -0.19200,
,,,0.570000000000,  -0.17600,
,,,0.580000000000,  -0.18400,
,,,0.590000000000,  -0.16000,
,,,0.600000000000,  -0.17600,
,,,0.610000000000,  -0.16000,
,,,0.620000000000,  -0.14400,
,,,0.630000000000,  -0.16000,
,,,0.640000000000,  -0.14400,
,,,0.650000000000,  -0.16000,
,,,0.660000000000,  -0.15200,
,,,0.670000000000,  -0.14400,
,,,0.680000000000,  -0.16000,
,,,0.690000000000,  -0.13600,
,,,0.700000000000,  -0.14400,
,,,0.710000000000,  -0.12800,
,,,0.720000000000,  -0.12800,
,,,0.730000000000,  -0.14400,
,,,0.740000000000,  -0.12000,
,,,0.750000000000,  -0.14400,
,,,0.760000000000,  -0.13600,
,,,0.770000000000,  -0.12800,
,,,0.780000000000,  -0.13600,
,,,0.790000000000,  -0.12000,
,,,0.800000000000,  -0.13600,
,,,0.810000000000,  -0.14400,
,,,0.820000000000,  -0.14400,
,,,0.830000000000,  -0.16000,
,,,0.840000000000,  -0.14400,
,,,0.850000000000,  -0.16800,
,,,0.860000000000,  -0.16000,
,,,0.870000000000,  -0.16800,
,,,0.880000000000,  -0.18400,
,,,0.890000000000,  -0.16800,
,,,0.900000000000,  -0.17600,
,,,0.910000000000,  -0.16800,
,,,0.920000000000,  -0.16000,
,,,0.930000000000,  -0.16000,
,,,0.940000000000,  -0.14400,
,,,0.950000000000,  -0.15200,
,,,0.960000000000,  -0.13600,
,,,0.970000000000,  -0.13600,
,,,0.980000000000,  -0.14400,
,,,0.990000000000,  -0.12800,
,,,1.000000000000,  -0.13600,
,,,1.010000000000,  -0.10400,
,,,1.020000000000,  -0.07200,
,,,1.030000000000,  -0.04800,
,,,1.040000000000,   0.01600,
,,,1.050000000000,   0.10400,
,,,1.060000000000,   0.22400,
,,,1.070000000000,   0.27200,
,,,1.080000000000,   0.21600,
,,,1.090000000000,   0.07200,
,,,1.100000000000,  -0.08000,
,,,1.110000000000,  -0.12000,
,,,1.120000000000,  -0.09600,
,,,1.130000000000,  -0.08000,
,,,1.140000000000,  -0.04000,
,,,1.150000000000,  -0.02400,
,,,1.160000000000,   0.03200,
,,,1.170000000000,   0.09600,
,,,1.180000000000,   0.12800,
,,,1.190000000000,   0.14400,
,,,1.200000000000,   0.11200,
,,,1.210000000000,   0.08800,
,,,1.220000000000,   0.04800,
,,,1.230000000000,  -0.01600,
,,,1.240000000000,  -0.03200,
,,,1.250000000000,  -0.06400,
,,,1.260000000000,  -0.07200,
,,,1.270000000000,  -0.07200,
,,,1.280000000000,  -0.08800,
,,,1.290000000000,  -0.05600,
,,,1.300000000000,  -0.05600,
,,,1.310000000000,  -0.06400,
,,,1.320000000000,  -0.11200,
,,,1.330000000000,  -0.18400,
,,,1.340000000000,  -0.25600,
,,,1.350000000000,  -0.33600,
,,,1.360000000000,  -0.36000,
,,,1.370000000000,  -0.36000,
,,,1.380000000000,  -0.36800,
,,,1.390000000000,  -0.34400,
,,,1.400000000000,  -0.35200,
,,,1.410000000000,  -0.33600,
,,,1.420000000000,  -0.34400,
,,,1.430000000000,  -0.34400,
,,,1.440000000000,  -0.33600,
,,,1.450000000000,  -0.34400,
,,,1.460000000000,  -0.33600,
,,,1.470000000000,  -0.32800,
,,,1.480000000000,  -0.33600,
,,,1.490000000000,  -0.30400,
,,,1.500000000000,  -0.27200,
,,,1.510000000000,  -0.24000,
,,,1.520000000000,  -0.23200,
,,,1.530000000000,  -0.24000,
,,,1.540000000000,  -0.22400,
,,,1.550000000000,  -0.21600,
,,,1.560000000000,  -0.12000,
,,,1.570000000000,   0.08800,
,,,1.580000000000,   0.44800,
,,,1.590000000000,   1.08800,
,,,1.600000000000,   1.14400,
,,,1.610000000000,   1.14400,
,,,1.620000000000,   1.14400,
,,,1.630000000000,   1.03200,
,,,1.640000000000,   0.68800,
,,,1.650000000000,   0.42400,
,,,1.660000000000,   0.31200,
,,,1.670000000000,   0.22400,
,,,1.680000000000,   0.16000,
,,,1.690000000000,   0.12800,
,,,1.700000000000,   0.06400,
,,,1.710000000000,  -0.03200,
,,,1.720000000000,  -0.18400,
,,,1.730000000000,  -0.16800,
,,,1.740000000000,   0.10400,
,,,1.750000000000,   0.35200,
,,,1.760000000000,   0.43200,
,,,1.770000000000,   0.40800,
,,,1.780000000000,   0.34400,
,,,1.790000000000,   0.34400,
,,,1.800000000000,   0.34400,
,,,1.810000000000,   0.36000,
,,,1.820000000000,   0.33600,
,,,1.830000000000,   0.24800,
,,,1.840000000000,   0.18400,
,,,1.850000000000,   0.11200,
,,,1.860000000000,   0.07200,
,,,1.870000000000,   0.04800,
,,,1.880000000000,   0.01600,
,,,1.890000000000,   0.00800,
,,,1.900000000000,  -0.04000,
,,,1.910000000000,  -0.05600,
,,,1.920000000000,  -0.08000,
,,,1.930000000000,  -0.07200,
,,,1.940000000000,   0.00000,
,,,1.950000000000,   0.03200,
,,,1.960000000000,   0.03200,
,,,1.970000000000,  -0.03200,
,,,1.980000000000,  -0.10400,
,,,1.990000000000,  -0.13600,
,,,2.000000000000,  -0.16800,
,,,2.010000000000,  -0.16000,
,,,2.020000000000,  -0.17600,
,,,2.030000000000,  -0.24000,
,,,2.040000000000,  -0.28800,
,,,2.050000000000,  -0.34400,
,,,2.060000000000,  -0.39200,
,,,2.070000000000,  -0.44000,
,,,2.080000000000,  -0.52000,
,,,2.090000000000,  -0.55200,
,,,2.100000000000,  -0.60000,
,,,2.110000000000,  -0.59200,
,,,2.120000000000,  -0.54400,
,,,2.130000000000,  -0.42400,
,,,2.140000000000,  -0.21600,
,,,2.150000000000,  -0.05600,
,,,2.160000000000,   0.09600,
,,,2.170000000000,   0.19200,
,,,2.180000000000,   0.23200,
,,,2.190000000000,   0.25600,
,,,2.200000000000,   0.23200,
,,,2.210000000000,   0.23200,
,,,2.220000000000,   0.20000,
,,,2.230000000000,   0.14400,
,,,2.240000000000,   0.08000,
,,,2.250000000000,  -0.04800,
,,,2.260000000000,  -0.18400,
,,,2.270000000000,  -0.32000,
,,,2.280000000000,  -0.40000,
,,,2.290000000000,  -0.28000,
,,,2.300000000000,  -0.13600,
,,,2.310000000000,  -0.04000,
,,,2.320000000000,   0.00800,
,,,2.330000000000,   0.00800,
,,,2.340000000000,   0.01600,
,,,2.350000000000,   0.01600,
,,,2.360000000000,   0.00800,
,,,2.370000000000,  -0.04800,
,,,2.380000000000,  -0.13600,
,,,2.390000000000,  -0.22400,
,,,2.400000000000,  -0.33600,
,,,2.410000000000,  -0.40800,
,,,2.420000000000,  -0.46400,
,,,2.430000000000,  -0.49600,
,,,2.440000000000,  -0.51200,
,,,2.450000000000,  -0.52000,
,,,2.460000000000,  -0.47200,
,,,2.470000000000,  -0.43200,
,,,2.480000000000,  -0.38400,
,,,2.490000000000,  -0.34400,
,,,2.500000000000,  -0.34400,
,,,2.510000000000,  -0.32800,
,,,2.520000000000,  -0.32000,
,,,2.530000000000,  -0.32800,
,,,2.540000000000,  -0.30400,
,,,2.550000000000,  -0.30400,
,,,2.560000000000,  -0.29600,
,,,2.570000000000,  -0.29600,
,,,2.580000000000,  -0.29600,
,,,2.590000000000,  -0.25600,
,,,2.600000000000,  -0.27200,
,,,2.610000000000,  -0.25600,
,,,2.620000000000,  -0.24800,
,,,2.630000000000,  -0.26400,
,,,2.640000000000,  -0.23200,
,,,2.650000000000,  -0.23200,
,,,2.660000000000,  -0.20800,
,,,2.670000000000,  -0.18400,
,,,2.680000000000,  -0.17600,
,,,2.690000000000,  -0.12800,
,,,2.700000000000,  -0.10400,
,,,2.710000000000,  -0.04000,
,,,2.720000000000,   0.08800,
,,,2.730000000000,   0.24000,
,,,2.740000000000,   0.36800,
,,,2.750000000000,   0.40800,
,,,2.760000000000,   0.47200,
,,,2.770000000000,   0.49600,
,,,2.780000000000,   0.48800,
,,,2.790000000000,   0.48000,
,,,2.800000000000,   0.40800,
,,,2.810000000000,   0.32000,
,,,2.820000000000,   0.19200,
,,,2.830000000000,   0.04000,
,,,2.840000000000,  -0.05600,
,,,2.850000000000,  -0.13600,
,,,2.860000000000,  -0.09600,
,,,2.870000000000,   0.06400,
,,,2.880000000000,   0.28000,
,,,2.890000000000,   0.52800,
,,,2.900000000000,   0.74400,
,,,2.910000000000,   0.88000,
,,,2.920000000000,   0.86400,
,,,2.930000000000,   0.70400,
,,,2.940000000000,   0.49600,
,,,2.950000000000,   0.36000,
,,,2.960000000000,   0.34400,
,,,2.970000000000,   0.36000,
,,,2.980000000000,   0.38400,
,,,2.990000000000,   0.43200,
,,,3.000000000000,   0.42400,
,,,3.010000000000,   0.42400,
,,,3.020000000000,   0.39200,
,,,3.030000000000,   0.33600,
,,,3.040000000000,   0.29600,
,,,3.050000000000,   0.24000,
,,,3.060000000000,   0.21600,
,,,3.070000000000,   0.18400,
,,,3.080000000000,   0.12800,
,,,3.090000000000,   0.12000,
,,,3.100000000000,   0.08000,
,,,3.110000000000,   0.04800,
,,,3.120000000000,   0.03200,
,,,3.130000000000,  -0.00800,
,,,3.140000000000,  -0.03200,
,,,3.150000000000,  -0.05600,
,,,3.160000000000,  -0.04000,
,,,3.170000000000,  -0.02400,
,,,3.180000000000,  -0.03200,
,,,3.190000000000,  -0.03200,
,,,3.200000000000,  -0.05600,
,,,3.210000000000,  -0.06400,
,,,3.220000000000,  -0.08800,
,,,3.230000000000,  -0.12000,
,,,3.240000000000,  -0.12800,
,,,3.250000000000,  -0.15200,
,,,3.260000000000,  -0.14400,
,,,3.270000000000,  -0.12800,
,,,3.280000000000,  -0.12000,
,,,3.290000000000,  -0.08000,
,,,3.300000000000,  -0.08800,
,,,3.310000000000,  -0.07200,
,,,3.320000000000,  -0.07200,
,,,3.330000000000,  -0.09600,
,,,3.340000000000,  -0.08800,
,,,3.350000000000,  -0.12000,
,,,3.360000000000,  -0.10400,
,,,3.370000000000,  -0.07200,
,,,3.380000000000,  -0.04000,
,,,3.390000000000,   0.04000,
,,,3.400000000000,   0.06400,
,,,3.410000000000,   0.09600,
,,,3.420000000000,   0.11200,
,,,3.430000000000,   0.08800,
,,,3.440000000000,   0.12000,
,,,3.450000000000,   0.13600,
,,,3.460000000000,   0.18400,
,,,3.470000000000,   0.29600,
,,,3.480000000000,   0.38400,
,,,3.490000000000,   0.43200,
,,,3.500000000000,   0.42400,
,,,3.510000000000,   0.39200,
,,,3.520000000000,   0.35200,
,,,3.530000000000,   0.32000,
,,,3.540000000000,   0.31200,
,,,3.550000000000,   0.34400,
,,,3.560000000000,   0.50400,
,,,3.570000000000,   0.60800,
,,,3.580000000000,   0.62400,
,,,3.590000000000,   0.63200,
,,,3.600000000000,   0.57600,
,,,3.610000000000,   0.51200,
,,,3.620000000000,   0.43200,
,,,3.630000000000,   0.38400,
,,,3.640000000000,   0.39200,
,,,3.650000000000,   0.44800,
,,,3.660000000000,   0.51200,
,,,3.670000000000,   0.50400,
,,,3.680000000000,   0.44800,
,,,3.690000000000,   0.60000,
,,,3.700000000000,   0.68000,
,,,3.710000000000,   0.65600,
,,,3.720000000000,   0.64000,
,,,3.730000000000,   0.71200,
,,,3.740000000000,   0.91200,
,,,3.750000000000,   1.01600,
,,,3.760000000000,   0.98400,
,,,3.770000000000,   0.87200,
,,,3.780000000000,   0.72800,
,,,3.790000000000,   0.62400,
,,,3.800000000000,   0.52000,
,,,3.810000000000,   0.47200,
,,,3.820000000000,   0.44800,
,,,3.830000000000,   0.41600,
,,,3.840000000000,   0.39200,
,,,3.850000000000,   0.34400,
,,,3.860000000000,   0.28800,
,,,3.870000000000,   0.24800,
,,,3.880000000000,   0.19200,
,,,3.890000000000,   0.14400,
,,,3.900000000000,   0.04800,
,,,3.910000000000,  -0.00800,
,,,3.920000000000,  -0.06400,
,,,3.930000000000,  -0.16800,
,,,3.940000000000,  -0.27200,
,,,3.950000000000,  -0.44000,
,,,3.960000000000,  -0.54400,
,,,3.970000000000,  -0.48000,
,,,3.980000000000,  -0.40000,
,,,3.990000000000,  -0.28800,
,,,4.000000000000,  -0.19200,
,,,4.010000000000,  -0.04000,
,,,4.020000000000,   0.06400,
,,,4.030000000000,   0.16000,
,,,4.040000000000,   0.23200,
,,,4.050000000000,   0.26400,
,,,4.060000000000,   0.35200,
,,,4.070000000000,   0.46400,
,,,4.080000000000,   0.51200,
,,,4.090000000000,   0.49600,
,,,4.100000000000,   0.38400,
,,,4.110000000000,   0.23200,
,,,4.120000000000,   0.02400,
,,,4.130000000000,  -0.24000,
,,,4.140000000000,  -0.30400,
,,,4.150000000000,  -0.40000,
,,,4.160000000000,  -0.32000,
,,,4.170000000000,  -0.29600,
,,,4.180000000000,  -0.19200,
,,,4.190000000000,   0.07200,
,,,4.200000000000,   0.32000,
,,,4.210000000000,   0.46400,
,,,4.220000000000,   0.53600,
,,,4.230000000000,   0.59200,
,,,4.240000000000,   0.68800,
,,,4.250000000000,   0.68800,
,,,4.260000000000,   0.62400,
,,,4.270000000000,   0.41600,
,,,4.280000000000,   0.17600,
,,,4.290000000000,   0.00800,
,,,4.300000000000,  -0.12000,
,,,4.310000000000,  -0.18400,
,,,4.320000000000,  -0.27200,
,,,4.330000000000,  -0.38400,
,,,4.340000000000,  -0.48800,
,,,4.350000000000,  -0.56800,
,,,4.360000000000,  -0.55200,
,,,4.370000000000,  -0.49600,
,,,4.380000000000,  -0.42400,
,,,4.390000000000,  -0.36000,
,,,4.400000000000,  -0.35200,
,,,4.410000000000,  -0.33600,
,,,4.420000000000,  -0.34400,
,,,4.430000000000,  -0.36000,
,,,4.440000000000,  -0.33600,
,,,4.450000000000,  -0.35200,
,,,4.460000000000,  -0.33600,
,,,4.470000000000,  -0.33600,
,,,4.480000000000,  -0.34400,
,,,4.490000000000,  -0.32800,
,,,4.500000000000,  -0.33600,
,,,4.510000000000,  -0.32800,
,,,4.520000000000,  -0.32000,
,,,4.530000000000,  -0.32800,
,,,4.540000000000,  -0.32000,
,,,4.550000000000,  -0.32800,
,,,4.560000000000,  -0.32000,
,,,4.570000000000,  -0.32000,
,,,4.580000000000,  -0.32800,
,,,4.590000000000,  -0.31200,
,,,4.600000000000,  -0.32800,
,,,4.610000000000,  -0.32000,
,,,4.620000000000,  -0.32800,
,,,4.630000000000,  -0.33600,
,,,4.640000000000,  -0.31200,
,,,4.650000000000,  -0.30400,
,,,4.660000000000,  -0.27200,
,,,4.670000000000,  -0.25600,
,,,4.680000000000,  -0.22400,
,,,4.690000000000,  -0.16800,
,,,4.700000000000,  -0.09600,
,,,4.710000000000,  -0.00800,
,,,4.720000000000,   0.05600,
,,,4.730000000000,   0.07200,
,,,4.740000000000,   0.06400,
,,,4.750000000000,   0.01600,
,,,4.760000000000,  -0.03200,
,,,4.770000000000,  -0.08000,
,,,4.780000000000,  -0.13600,
,,,4.790000000000,  -0.16800,
,,,4.800000000000,  -0.20800,
,,,4.810000000000,  -0.22400,
,,,4.820000000000,  -0.26400,
,,,4.830000000000,  -0.32000,
,,,4.840000000000,  -0.36000,
,,,4.850000000000,  -0.37600,
,,,4.860000000000,  -0.34400,
,,,4.870000000000,  -0.32000,
,,,4.880000000000,  -0.28800,
,,,4.890000000000,  -0.25600,
,,,4.900000000000,  -0.24800,
,,,4.910000000000,  -0.24800,
,,,4.920000000000,  -0.24800,
,,,4.930000000000,  -0.26400,
,,,4.940000000000,  -0.24800,
,,,4.950000000000,  -0.25600,
,,,4.960000000000,  -0.24800,
,,,4.970000000000,  -0.24800,
,,,4.980000000000,  -0.25600,
,,,4.990000000000,  -0.24800,
,,,5.000000000000,  -0.26400,
,,,5.010000000000,  -0.25600,
,,,5.020000000000,  -0.24800,
,,,5.030000000000,  -0.26400,
,,,5.040000000000,  -0.24800,
,,,5.050000000000,  -0.26400,
,,,5.060000000000,  -0.25600,
,,,5.070000000000,  -0.25600,
,,,5.080000000000,  -0.25600,
,,,5.090000000000,  -0.24000,
,,,5.100000000000,  -0.25600,
,,,5.110000000000,  -0.24800,
,,,5.120000000000,  -0.24800,
,,,5.130000000000,  -0.25600,
,,,5.140000000000,  -0.24000,
,,,5.150000000000,  -0.24800,
,,,5.160000000000,  -0.24000,
,,,5.170000000000,  -0.24000,
,,,5.180000000000,  -0.24800,
,,,5.190000000000,  -0.22400,
,,,5.200000000000,  -0.24800,
,,,5.210000000000,  -0.24000,
,,,5.220000000000,  -0.24800,
,,,5.230000000000,  -0.24800,
,,,5.240000000000,  -0.24800,
,,,5.250000000000,  -0.25600,
,,,5.260000000000,  -0.24000,
,,,5.270000000000,  -0.24000,
,,,5.280000000000,  -0.25600,
,,,5.290000000000,  -0.24000,
,,,5.300000000000,  -0.24800,
,,,5.310000000000,  -0.24800,
,,,5.320000000000,  -0.24800,
,,,5.330000000000,  -0.24800,
,,,5.340000000000,  -0.24000,
,,,5.350000000000,  -0.25600,
,,,5.360000000000,  -0.24800,
,,,5.370000000000,  -0.24800,
,,,5.380000000000,  -0.25600,
,,,5.390000000000,  -0.24000,
,,,5.400000000000,  -0.25600,
,,,5.410000000000,  -0.24800,
,,,5.420000000000,  -0.25600,
,,,5.430000000000,  -0.25600,
,,,5.440000000000,  -0.24000,
,,,5.450000000000,  -0.26400,
,,,5.460000000000,  -0.24800,
,,,5.470000000000,  -0.25600,
,,,5.480000000000,  -0.26400,
,,,5.490000000000,  -0.24800,
,,,5.500000000000,  -0.25600,
,,,5.510000000000,  -0.25600,
,,,5.520000000000,  -0.25600,
,,,5.530000000000,  -0.26400,
,,,5.540000000000,  -0.24800,
,,,5.550000000000,  -0.26400,
,,,5.560000000000,  -0.24800,
,,,5.570000000000,  -0.25600,
,,,5.580000000000,  -0.27200,
,,,5.590000000000,  -0.28000,
,,,5.600000000000,  -0.32000,
,,,5.610000000000,  -0.33600,
,,,5.620000000000,  -0.36000,
,,,5.630000000000,  -0.38400,
,,,5.640000000000,  -0.36800,
,,,5.650000000000,  -0.37600,
,,,5.660000000000,  -0.36000,
,,,5.670000000000,  -0.36000,
,,,5.680000000000,  -0.36000,
,,,5.690000000000,  -0.33600,
,,,5.700000000000,  -0.35200,
,,,5.710000000000,  -0.33600,
,,,5.720000000000,  -0.33600,
,,,5.730000000000,  -0.33600,
,,,5.740000000000,  -0.32000,
,,,5.750000000000,  -0.32800,
,,,5.760000000000,  -0.32000,
,,,5.770000000000,  -0.31200,
,,,5.780000000000,  -0.32000,
,,,5.790000000000,  -0.31200,
,,,5.800000000000,  -0.32000,
,,,5.810000000000,  -0.31200,
,,,5.820000000000,  -0.31200,
,,,5.830000000000,  -0.32000,
,,,5.840000000000,  -0.31200,
,,,5.850000000000,  -0.32000,
,,,5.860000000000,  -0.30400,
,,,5.870000000000,  -0.31200,
,,,5.880000000000,  -0.32000,
,,,5.890000000000,  -0.29600,
,,,5.900000000000,  -0.32000,
,,,5.910000000000,  -0.30400,
,,,5.920000000000,  -0.30400,
,,,5.930000000000,  -0.31200,
,,,5.940000000000,  -0.29600,
,,,5.950000000000,  -0.31200,
,,,5.960000000000,  -0.31200,
,,,5.970000000000,  -0.31200,
,,,5.980000000000,  -0.32000,
,,,5.990000000000,  -0.31200,
,,,6.000000000000,  -0.32800,
,,,6.010000000000,  -0.32000,
,,,6.020000000000,  -0.32800,
,,,6.030000000000,  -0.33600,
,,,6.040000000000,  -0.32000,
,,,6.050000000000,  -0.31200,
,,,6.060000000000,  -0.28800,
,,,6.070000000000,  -0.27200,
,,,6.080000000000,  -0.26400,
,,,6.090000000000,  -0.24800,
,,,6.100000000000,  -0.26400,
,,,6.110000000000,  -0.25600,
,,,6.120000000000,  -0.25600,
,,,6.130000000000,  -0.26400,
,,,6.140000000000,  -0.24800,
,,,6.150000000000,  -0.27200,
,,,6.160000000000,  -0.27200,
,,,6.170000000000,  -0.27200,
,,,6.180000000000,  -0.28000,
,,,6.190000000000,  -0.27200,
,,,6.200000000000,  -0.28000,
,,,6.210000000000,  -0.28000,
,,,6.220000000000,  -0.28000,
,,,6.230000000000,  -0.28800,
,,,6.240000000000,  -0.28000,
,,,6.250000000000,  -0.28800,
,,,6.260000000000,  -0.28000,
,,,6.270000000000,  -0.28000,
,,,6.280000000000,  -0.28800,
,,,6.290000000000,  -0.28000,
,,,6.300000000000,  -0.28800,
,,,6.310000000000,  -0.28000,
,,,6.320000000000,  -0.28000,
,,,6.330000000000,  -0.28800,
,,,6.340000000000,  -0.27200,
,,,6.350000000000,  -0.28800,
,,,6.360000000000,  -0.28000,
,,,6.370000000000,  -0.28000,
,,,6.380000000000,  -0.28000,
,,,6.390000000000,  -0.27200,
,,,6.400000000000,  -0.28000,
,,,6.410000000000,  -0.27200,
,,,6.420000000000,  -0.28000,
,,,6.430000000000,  -0.29600,
,,,6.440000000000,  -0.28800,
,,,6.450000000000,  -0.29600,
,,,6.460000000000,  -0.25600,
,,,6.470000000000,  -0.22400,
,,,6.480000000000,  -0.20000,
,,,6.490000000000,  -0.16800,
,,,6.500000000000,  -0.16800,
,,,6.510000000000,  -0.15200,
,,,6.520000000000,  -0.15200,
,,,6.530000000000,  -0.16000,
